266 THz 230 THz 513 THz (yellow) 726 THz (violet) 449 THz (red) 676 608 297 !144 THz 177 673 THz (violet) 920 512 390 THz 380 
827 THz 53 THz 985 58 THz 965 THz 840 THz 248 .777 THz (violet) 824 THz 886 THz 664 901 796 !379 992 .583 569 905 
736 THz (violet) 712 THz (violet) 137 THz 310 262 THz 616 146 745 THz (violet) 553 THz (green) ,572 THz (green) 43 THz 113 THz 89 THz 80 764 514 THz (yellow) 815 THz 115 THz 367 18 476 THz (red) 4 THz 603 858 THz 113 THz :626 THz (blue) 403 571 158 770 136 THz 635 75 THz 183 352 THz 994 988 152 405 921 527 .907 THz 296 THz .886 THz 749 THz (violet) 504 993 THz 286 THz 323 THz 752 178 678 THz (violet) 780 THz (violet) 777 797 THz 
148 THz 628 
773 THz (violet) 837 THz 848 THz 309 THz 852 148 THz 454 THz (red) :783 THz (violet) 569 739 829 THz 755 THz (violet) 844 THz 82 948 THz 207 THz !669 THz (violet) 111 12 941 !883 THz 117 THz 284 THz 514 THz (yellow) 619 ,74 614 158 .199 THz 469 163 THz 130 141 THz 382 THz 843 !358 THz .415 THz (red) ,839 .776 924 THz 649 518 THz (yellow) .888 THz 241 THz 355 .947 THz !:103 THz 154 46 THz 901 THz 512 213 THz 662 THz (blue) 610 170 THz 81 THz 247 THz 763 THz (violet) 551 488 THz (orange) 691 916 THz 992 THz 923 THz 770 34 62 393 288 739 640 359 226 THz 969 
468 THz (red) 479 927 286 THz 560 THz (green) !.103 THz 986 THz 243 
